{
  "fio version" : "fio-3.1",
  "timestamp" : 1541927212,
  "timestamp_ms" : 1541927212351,
  "time" : "Sun Nov 11 09:06:52 2018",
  "global options" : {
    "fallocate" : "none",
    "runtime" : "30",
    "directory" : "/data/fio_write/ceph-write-7z94k",
    "bs" : "128",
    "time_based" : "1",
    "ioengine" : "libaio",
    "iodepth" : "8",
    "direct" : "1",
    "buffered" : "0",
    "thread" : "0",
    "group_reporting" : "1",
    "filesize" : "32g",
    "size" : "32g",
    "filename_format" : "$jobnum.dat"
  },
  "jobs" : [
    {
      "jobname" : "${FIO_JOB}",
      "groupid" : 0,
      "error" : 0,
      "eta" : 0,
      "elapsed" : 31,
      "job options" : {
        "rw" : "randwrite"
      },
      "read" : {
        "io_bytes" : 0,
        "io_kbytes" : 0,
        "bw" : 0,
        "iops" : 0.000000,
        "runtime" : 0,
        "total_ios" : 0,
        "short_ios" : 0,
        "drop_ios" : 0,
        "slat_ns" : {
          "min" : 0,
          "max" : 0,
          "mean" : 0.000000,
          "stddev" : 0.000000
        },
        "clat_ns" : {
          "min" : 0,
          "max" : 0,
          "mean" : 0.000000,
          "stddev" : 0.000000,
          "percentile" : {
            "1.000000" : 0,
            "5.000000" : 0,
            "10.000000" : 0,
            "20.000000" : 0,
            "30.000000" : 0,
            "40.000000" : 0,
            "50.000000" : 0,
            "60.000000" : 0,
            "70.000000" : 0,
            "80.000000" : 0,
            "90.000000" : 0,
            "95.000000" : 0,
            "99.000000" : 0,
            "99.500000" : 0,
            "99.900000" : 0,
            "99.950000" : 0,
            "99.990000" : 0,
            "0.00" : 0,
            "0.00" : 0,
            "0.00" : 0
          },
          "bins" : {

          }
        },
        "lat_ns" : {
          "min" : 0,
          "max" : 0,
          "mean" : 0.000000,
          "stddev" : 0.000000
        },
        "bw_min" : 0,
        "bw_max" : 0,
        "bw_agg" : 0.000000,
        "bw_mean" : 0.000000,
        "bw_dev" : 0.000000,
        "bw_samples" : 0,
        "iops_min" : 0,
        "iops_max" : 0,
        "iops_mean" : 0.000000,
        "iops_stddev" : 0.000000,
        "iops_samples" : 0
      },
      "write" : {
        "io_bytes" : 1265536,
        "io_kbytes" : 1235,
        "bw" : 41,
        "iops" : 328.624609,
        "runtime" : 30086,
        "total_ios" : 9887,
        "short_ios" : 0,
        "drop_ios" : 0,
        "slat_ns" : {
          "min" : 22794,
          "max" : 95551782,
          "mean" : 161297.630424,
          "stddev" : 1914182.105875
        },
        "clat_ns" : {
          "min" : 3656598,
          "max" : 574971954,
          "mean" : 96862550.916254,
          "stddev" : 54129092.288031,
          "percentile" : {
            "1.000000" : 24510464,
            "5.000000" : 41156608,
            "10.000000" : 50593792,
            "20.000000" : 61603840,
            "30.000000" : 69730304,
            "40.000000" : 78118912,
            "50.000000" : 85458944,
            "60.000000" : 94896128,
            "70.000000" : 105381888,
            "80.000000" : 121110528,
            "90.000000" : 147849216,
            "95.000000" : 183500800,
            "99.000000" : 329252864,
            "99.500000" : 379584512,
            "99.900000" : 526385152,
            "99.950000" : 541065216,
            "99.990000" : 574619648,
            "0.00" : 0,
            "0.00" : 0,
            "0.00" : 0
          },
          "bins" : {
            "3653632" : 1,
            "4046848" : 1,
            "4227072" : 1,
            "4816896" : 1,
            "5013504" : 1,
            "5603328" : 1,
            "6062080" : 1,
            "6258688" : 1,
            "6389760" : 1,
            "6717440" : 1,
            "6979584" : 1,
            "7634944" : 1,
            "8093696" : 1,
            "8847360" : 1,
            "9633792" : 1,
            "9764864" : 1,
            "9895936" : 2,
            "10158080" : 1,
            "11993088" : 1,
            "13041664" : 1,
            "13303808" : 1,
            "13434880" : 1,
            "13697024" : 1,
            "13828096" : 1,
            "13959168" : 1,
            "14483456" : 1,
            "14745600" : 1,
            "14876672" : 2,
            "15138816" : 1,
            "15400960" : 2,
            "15663104" : 2,
            "15925248" : 1,
            "16187392" : 3,
            "16711680" : 2,
            "16908288" : 1,
            "17432576" : 2,
            "17694720" : 1,
            "17956864" : 2,
            "18219008" : 2,
            "18481152" : 2,
            "19005440" : 2,
            "19267584" : 3,
            "19529728" : 2,
            "19791872" : 2,
            "20054016" : 2,
            "20316160" : 3,
            "20578304" : 2,
            "20840448" : 1,
            "21102592" : 1,
            "21364736" : 2,
            "21626880" : 1,
            "21889024" : 3,
            "22413312" : 3,
            "22675456" : 1,
            "22937600" : 2,
            "23199744" : 1,
            "23461888" : 4,
            "23724032" : 3,
            "23986176" : 2,
            "24248320" : 7,
            "24510464" : 5,
            "24772608" : 1,
            "25034752" : 4,
            "25296896" : 3,
            "25559040" : 1,
            "25821184" : 4,
            "26083328" : 4,
            "26345472" : 4,
            "26607616" : 3,
            "26869760" : 3,
            "27131904" : 2,
            "27394048" : 7,
            "27656192" : 4,
            "27918336" : 5,
            "28180480" : 4,
            "28442624" : 3,
            "28704768" : 4,
            "28966912" : 1,
            "29229056" : 7,
            "29491200" : 8,
            "29753344" : 2,
            "30015488" : 3,
            "30277632" : 1,
            "30539776" : 6,
            "30801920" : 6,
            "31064064" : 7,
            "31326208" : 6,
            "31588352" : 4,
            "31850496" : 6,
            "32112640" : 6,
            "32374784" : 2,
            "32636928" : 6,
            "32899072" : 3,
            "33161216" : 7,
            "33423360" : 5,
            "33816576" : 13,
            "34340864" : 13,
            "34865152" : 15,
            "35389440" : 8,
            "35913728" : 28,
            "36438016" : 11,
            "36962304" : 12,
            "37486592" : 18,
            "38010880" : 17,
            "38535168" : 16,
            "39059456" : 16,
            "39583744" : 21,
            "40108032" : 32,
            "40632320" : 24,
            "41156608" : 19,
            "41680896" : 13,
            "42205184" : 23,
            "42729472" : 22,
            "43253760" : 23,
            "43778048" : 23,
            "44302336" : 26,
            "44826624" : 26,
            "45350912" : 24,
            "45875200" : 24,
            "46399488" : 33,
            "46923776" : 31,
            "47448064" : 21,
            "47972352" : 28,
            "48496640" : 44,
            "49020928" : 40,
            "49545216" : 42,
            "50069504" : 29,
            "50593792" : 37,
            "51118080" : 41,
            "51642368" : 40,
            "52166656" : 38,
            "52690944" : 46,
            "53215232" : 45,
            "53739520" : 43,
            "54263808" : 33,
            "54788096" : 31,
            "55312384" : 49,
            "55836672" : 52,
            "56360960" : 51,
            "56885248" : 49,
            "57409536" : 58,
            "57933824" : 52,
            "58458112" : 39,
            "58982400" : 56,
            "59506688" : 41,
            "60030976" : 46,
            "60555264" : 48,
            "61079552" : 65,
            "61603840" : 60,
            "62128128" : 76,
            "62652416" : 51,
            "63176704" : 49,
            "63700992" : 72,
            "64225280" : 63,
            "64749568" : 64,
            "65273856" : 56,
            "65798144" : 53,
            "66322432" : 66,
            "66846720" : 57,
            "67633152" : 133,
            "68681728" : 130,
            "69730304" : 110,
            "70778880" : 143,
            "71827456" : 137,
            "72876032" : 140,
            "73924608" : 150,
            "74973184" : 119,
            "76021760" : 141,
            "77070336" : 140,
            "78118912" : 130,
            "79167488" : 138,
            "80216064" : 144,
            "81264640" : 121,
            "82313216" : 117,
            "83361792" : 139,
            "84410368" : 131,
            "85458944" : 116,
            "86507520" : 125,
            "87556096" : 127,
            "88604672" : 113,
            "89653248" : 102,
            "90701824" : 128,
            "91750400" : 108,
            "92798976" : 120,
            "93847552" : 90,
            "94896128" : 97,
            "95944704" : 120,
            "96993280" : 113,
            "98041856" : 98,
            "99090432" : 86,
            "100139008" : 96,
            "101187584" : 98,
            "102236160" : 70,
            "103284736" : 93,
            "104333312" : 88,
            "105381888" : 82,
            "106430464" : 78,
            "107479040" : 76,
            "108527616" : 77,
            "109576192" : 61,
            "110624768" : 73,
            "111673344" : 54,
            "112721920" : 70,
            "113770496" : 74,
            "114819072" : 72,
            "115867648" : 75,
            "116916224" : 70,
            "117964800" : 59,
            "119013376" : 61,
            "120061952" : 64,
            "121110528" : 56,
            "122159104" : 57,
            "123207680" : 56,
            "124256256" : 57,
            "125304832" : 54,
            "126353408" : 44,
            "127401984" : 34,
            "128450560" : 45,
            "129499136" : 49,
            "130547712" : 47,
            "131596288" : 31,
            "132644864" : 44,
            "133693440" : 43,
            "135266304" : 75,
            "137363456" : 59,
            "139460608" : 70,
            "141557760" : 54,
            "143654912" : 49,
            "145752064" : 57,
            "147849216" : 60,
            "149946368" : 39,
            "152043520" : 29,
            "154140672" : 34,
            "156237824" : 40,
            "158334976" : 36,
            "160432128" : 38,
            "162529280" : 33,
            "164626432" : 24,
            "166723584" : 24,
            "168820736" : 31,
            "170917888" : 18,
            "173015040" : 20,
            "175112192" : 22,
            "177209344" : 12,
            "179306496" : 17,
            "181403648" : 16,
            "183500800" : 18,
            "185597952" : 10,
            "187695104" : 13,
            "189792256" : 13,
            "191889408" : 5,
            "193986560" : 12,
            "196083712" : 10,
            "198180864" : 13,
            "200278016" : 10,
            "202375168" : 14,
            "204472320" : 12,
            "206569472" : 8,
            "208666624" : 14,
            "210763776" : 5,
            "212860928" : 10,
            "214958080" : 1,
            "217055232" : 5,
            "219152384" : 10,
            "221249536" : 5,
            "223346688" : 4,
            "225443840" : 8,
            "227540992" : 2,
            "229638144" : 5,
            "231735296" : 4,
            "233832448" : 10,
            "235929600" : 4,
            "238026752" : 9,
            "240123904" : 4,
            "242221056" : 5,
            "244318208" : 2,
            "246415360" : 9,
            "248512512" : 1,
            "250609664" : 2,
            "252706816" : 5,
            "254803968" : 4,
            "256901120" : 6,
            "258998272" : 3,
            "261095424" : 4,
            "263192576" : 8,
            "265289728" : 5,
            "267386880" : 7,
            "270532608" : 8,
            "274726912" : 7,
            "278921216" : 11,
            "283115520" : 10,
            "287309824" : 9,
            "291504128" : 10,
            "295698432" : 9,
            "299892736" : 7,
            "304087040" : 9,
            "308281344" : 8,
            "312475648" : 5,
            "316669952" : 8,
            "320864256" : 4,
            "325058560" : 4,
            "329252864" : 4,
            "333447168" : 6,
            "337641472" : 6,
            "341835776" : 4,
            "346030080" : 7,
            "350224384" : 3,
            "358612992" : 6,
            "362807296" : 1,
            "367001600" : 2,
            "371195904" : 4,
            "375390208" : 6,
            "379584512" : 6,
            "383778816" : 3,
            "387973120" : 2,
            "392167424" : 4,
            "400556032" : 1,
            "404750336" : 3,
            "408944640" : 2,
            "417333248" : 1,
            "421527552" : 3,
            "425721856" : 4,
            "434110464" : 1,
            "438304768" : 1,
            "442499072" : 1,
            "446693376" : 1,
            "467664896" : 1,
            "471859200" : 1,
            "480247808" : 1,
            "488636416" : 1,
            "492830720" : 2,
            "505413632" : 1,
            "517996544" : 1,
            "526385152" : 2,
            "530579456" : 1,
            "541065216" : 4,
            "549453824" : 2,
            "566231040" : 1,
            "574619648" : 1
          }
        },
        "lat_ns" : {
          "min" : 3759419,
          "max" : 575073716,
          "mean" : 97024687.007383,
          "stddev" : 54248304.580913
        },
        "bw_min" : 3,
        "bw_max" : 13,
        "bw_agg" : 24.126016,
        "bw_mean" : 9.891667,
        "bw_dev" : 1.683272,
        "bw_samples" : 240,
        "iops_min" : 24,
        "iops_max" : 104,
        "iops_mean" : 82.112500,
        "iops_stddev" : 13.072050,
        "iops_samples" : 240
      },
      "trim" : {
        "io_bytes" : 0,
        "io_kbytes" : 0,
        "bw" : 0,
        "iops" : 0.000000,
        "runtime" : 0,
        "total_ios" : 0,
        "short_ios" : 0,
        "drop_ios" : 0,
        "slat_ns" : {
          "min" : 0,
          "max" : 0,
          "mean" : 0.000000,
          "stddev" : 0.000000
        },
        "clat_ns" : {
          "min" : 0,
          "max" : 0,
          "mean" : 0.000000,
          "stddev" : 0.000000,
          "percentile" : {
            "1.000000" : 0,
            "5.000000" : 0,
            "10.000000" : 0,
            "20.000000" : 0,
            "30.000000" : 0,
            "40.000000" : 0,
            "50.000000" : 0,
            "60.000000" : 0,
            "70.000000" : 0,
            "80.000000" : 0,
            "90.000000" : 0,
            "95.000000" : 0,
            "99.000000" : 0,
            "99.500000" : 0,
            "99.900000" : 0,
            "99.950000" : 0,
            "99.990000" : 0,
            "0.00" : 0,
            "0.00" : 0,
            "0.00" : 0
          },
          "bins" : {

          }
        },
        "lat_ns" : {
          "min" : 0,
          "max" : 0,
          "mean" : 0.000000,
          "stddev" : 0.000000
        },
        "bw_min" : 0,
        "bw_max" : 0,
        "bw_agg" : 0.000000,
        "bw_mean" : 0.000000,
        "bw_dev" : 0.000000,
        "bw_samples" : 0,
        "iops_min" : 0,
        "iops_max" : 0,
        "iops_mean" : 0.000000,
        "iops_stddev" : 0.000000,
        "iops_samples" : 0
      },
      "usr_cpu" : 0.121415,
      "sys_cpu" : 0.458216,
      "ctx" : 19464,
      "majf" : 0,
      "minf" : 29,
      "iodepth_level" : {
        "1" : 0.100000,
        "2" : 0.100000,
        "4" : 0.161829,
        "8" : 99.716800,
        "16" : 0.000000,
        "32" : 0.000000,
        ">=64" : 0.000000
      },
      "latency_ns" : {
        "2" : 0.000000,
        "4" : 0.000000,
        "10" : 0.000000,
        "20" : 0.000000,
        "50" : 0.000000,
        "100" : 0.000000,
        "250" : 0.000000,
        "500" : 0.000000,
        "750" : 0.000000,
        "1000" : 0.000000
      },
      "latency_us" : {
        "2" : 0.000000,
        "4" : 0.000000,
        "10" : 0.000000,
        "20" : 0.000000,
        "50" : 0.000000,
        "100" : 0.000000,
        "250" : 0.000000,
        "500" : 0.000000,
        "750" : 0.000000,
        "1000" : 0.000000
      },
      "latency_ms" : {
        "2" : 0.000000,
        "4" : 0.010114,
        "10" : 0.171943,
        "20" : 0.424800,
        "50" : 9.112977,
        "100" : 55.537575,
        "250" : 32.173561,
        "500" : 2.437544,
        "750" : 0.131486,
        "1000" : 0.000000,
        "2000" : 0.000000,
        ">=2000" : 0.000000
      },
      "latency_depth" : 8,
      "latency_target" : 0,
      "latency_percentile" : 100.000000,
      "latency_window" : 0
    }
  ]
}
