{
  "fio version" : "fio-3.1",
  "timestamp" : 1541927212,
  "timestamp_ms" : 1541927212355,
  "time" : "Sun Nov 11 09:06:52 2018",
  "global options" : {
    "fallocate" : "none",
    "runtime" : "30",
    "directory" : "/data/fio_write/ceph-write-7rn9v",
    "bs" : "128",
    "time_based" : "1",
    "ioengine" : "libaio",
    "iodepth" : "8",
    "direct" : "1",
    "buffered" : "0",
    "thread" : "0",
    "group_reporting" : "1",
    "filesize" : "32g",
    "size" : "32g",
    "filename_format" : "$jobnum.dat"
  },
  "jobs" : [
    {
      "jobname" : "${FIO_JOB}",
      "groupid" : 0,
      "error" : 0,
      "eta" : 0,
      "elapsed" : 31,
      "job options" : {
        "rw" : "randwrite"
      },
      "read" : {
        "io_bytes" : 0,
        "io_kbytes" : 0,
        "bw" : 0,
        "iops" : 0.000000,
        "runtime" : 0,
        "total_ios" : 0,
        "short_ios" : 0,
        "drop_ios" : 0,
        "slat_ns" : {
          "min" : 0,
          "max" : 0,
          "mean" : 0.000000,
          "stddev" : 0.000000
        },
        "clat_ns" : {
          "min" : 0,
          "max" : 0,
          "mean" : 0.000000,
          "stddev" : 0.000000,
          "percentile" : {
            "1.000000" : 0,
            "5.000000" : 0,
            "10.000000" : 0,
            "20.000000" : 0,
            "30.000000" : 0,
            "40.000000" : 0,
            "50.000000" : 0,
            "60.000000" : 0,
            "70.000000" : 0,
            "80.000000" : 0,
            "90.000000" : 0,
            "95.000000" : 0,
            "99.000000" : 0,
            "99.500000" : 0,
            "99.900000" : 0,
            "99.950000" : 0,
            "99.990000" : 0,
            "0.00" : 0,
            "0.00" : 0,
            "0.00" : 0
          },
          "bins" : {

          }
        },
        "lat_ns" : {
          "min" : 0,
          "max" : 0,
          "mean" : 0.000000,
          "stddev" : 0.000000
        },
        "bw_min" : 0,
        "bw_max" : 0,
        "bw_agg" : 0.000000,
        "bw_mean" : 0.000000,
        "bw_dev" : 0.000000,
        "bw_samples" : 0,
        "iops_min" : 0,
        "iops_max" : 0,
        "iops_mean" : 0.000000,
        "iops_stddev" : 0.000000,
        "iops_samples" : 0
      },
      "write" : {
        "io_bytes" : 1262464,
        "io_kbytes" : 1232,
        "bw" : 40,
        "iops" : 327.598233,
        "runtime" : 30107,
        "total_ios" : 9863,
        "short_ios" : 0,
        "drop_ios" : 0,
        "slat_ns" : {
          "min" : 24291,
          "max" : 76875684,
          "mean" : 151570.948089,
          "stddev" : 1632408.118084
        },
        "clat_ns" : {
          "min" : 4225819,
          "max" : 668412059,
          "mean" : 97190347.050796,
          "stddev" : 55271840.227650,
          "percentile" : {
            "1.000000" : 24772608,
            "5.000000" : 41156608,
            "10.000000" : 50069504,
            "20.000000" : 61079552,
            "30.000000" : 69730304,
            "40.000000" : 77070336,
            "50.000000" : 85458944,
            "60.000000" : 94896128,
            "70.000000" : 106430464,
            "80.000000" : 121110528,
            "90.000000" : 149946368,
            "95.000000" : 187695104,
            "99.000000" : 337641472,
            "99.500000" : 383778816,
            "99.900000" : 492830720,
            "99.950000" : 534773760,
            "99.990000" : 666894336,
            "0.00" : 0,
            "0.00" : 0,
            "0.00" : 0
          },
          "bins" : {
            "4227072" : 1,
            "4489216" : 1,
            "4947968" : 1,
            "5603328" : 1,
            "6062080" : 1,
            "6520832" : 1,
            "7045120" : 1,
            "7962624" : 1,
            "8716288" : 1,
            "8978432" : 1,
            "9502720" : 1,
            "10027008" : 1,
            "10813440" : 1,
            "11337728" : 2,
            "11599872" : 1,
            "11862016" : 2,
            "12124160" : 2,
            "12517376" : 1,
            "12648448" : 1,
            "13434880" : 1,
            "13565952" : 1,
            "13959168" : 1,
            "14090240" : 1,
            "14614528" : 2,
            "15663104" : 2,
            "15794176" : 1,
            "16056320" : 2,
            "16187392" : 1,
            "16580608" : 1,
            "16711680" : 1,
            "16908288" : 2,
            "17432576" : 2,
            "17694720" : 2,
            "18219008" : 3,
            "18481152" : 3,
            "18743296" : 1,
            "19005440" : 1,
            "19267584" : 2,
            "19529728" : 1,
            "19791872" : 2,
            "20054016" : 3,
            "20316160" : 1,
            "20578304" : 3,
            "20840448" : 2,
            "21102592" : 2,
            "21364736" : 2,
            "21889024" : 3,
            "22151168" : 2,
            "22413312" : 3,
            "22675456" : 3,
            "22937600" : 2,
            "23199744" : 2,
            "23461888" : 1,
            "23724032" : 3,
            "23986176" : 4,
            "24248320" : 4,
            "24510464" : 2,
            "24772608" : 4,
            "25034752" : 3,
            "25296896" : 2,
            "25559040" : 5,
            "25821184" : 1,
            "26083328" : 3,
            "26345472" : 5,
            "26607616" : 3,
            "26869760" : 5,
            "27131904" : 4,
            "27394048" : 3,
            "27656192" : 1,
            "27918336" : 2,
            "28180480" : 7,
            "28442624" : 6,
            "28704768" : 4,
            "28966912" : 5,
            "29229056" : 2,
            "29491200" : 5,
            "29753344" : 6,
            "30015488" : 5,
            "30277632" : 6,
            "30539776" : 6,
            "30801920" : 8,
            "31064064" : 4,
            "31326208" : 6,
            "31588352" : 4,
            "31850496" : 9,
            "32112640" : 10,
            "32374784" : 7,
            "32636928" : 7,
            "32899072" : 7,
            "33161216" : 4,
            "33423360" : 7,
            "33816576" : 14,
            "34340864" : 6,
            "34865152" : 13,
            "35389440" : 11,
            "35913728" : 9,
            "36438016" : 15,
            "36962304" : 17,
            "37486592" : 13,
            "38010880" : 17,
            "38535168" : 11,
            "39059456" : 20,
            "39583744" : 14,
            "40108032" : 26,
            "40632320" : 22,
            "41156608" : 24,
            "41680896" : 22,
            "42205184" : 30,
            "42729472" : 25,
            "43253760" : 25,
            "43778048" : 28,
            "44302336" : 31,
            "44826624" : 23,
            "45350912" : 22,
            "45875200" : 35,
            "46399488" : 28,
            "46923776" : 28,
            "47448064" : 25,
            "47972352" : 36,
            "48496640" : 44,
            "49020928" : 37,
            "49545216" : 28,
            "50069504" : 45,
            "50593792" : 35,
            "51118080" : 38,
            "51642368" : 42,
            "52166656" : 42,
            "52690944" : 28,
            "53215232" : 42,
            "53739520" : 43,
            "54263808" : 45,
            "54788096" : 50,
            "55312384" : 57,
            "55836672" : 55,
            "56360960" : 37,
            "56885248" : 45,
            "57409536" : 55,
            "57933824" : 52,
            "58458112" : 43,
            "58982400" : 46,
            "59506688" : 59,
            "60030976" : 46,
            "60555264" : 58,
            "61079552" : 59,
            "61603840" : 58,
            "62128128" : 61,
            "62652416" : 68,
            "63176704" : 60,
            "63700992" : 60,
            "64225280" : 58,
            "64749568" : 59,
            "65273856" : 66,
            "65798144" : 62,
            "66322432" : 74,
            "66846720" : 73,
            "67633152" : 135,
            "68681728" : 123,
            "69730304" : 115,
            "70778880" : 120,
            "71827456" : 127,
            "72876032" : 147,
            "73924608" : 140,
            "74973184" : 115,
            "76021760" : 150,
            "77070336" : 133,
            "78118912" : 115,
            "79167488" : 133,
            "80216064" : 136,
            "81264640" : 122,
            "82313216" : 113,
            "83361792" : 115,
            "84410368" : 115,
            "85458944" : 128,
            "86507520" : 131,
            "87556096" : 133,
            "88604672" : 123,
            "89653248" : 109,
            "90701824" : 106,
            "91750400" : 109,
            "92798976" : 105,
            "93847552" : 118,
            "94896128" : 132,
            "95944704" : 93,
            "96993280" : 96,
            "98041856" : 89,
            "99090432" : 87,
            "100139008" : 86,
            "101187584" : 82,
            "102236160" : 84,
            "103284736" : 74,
            "104333312" : 79,
            "105381888" : 88,
            "106430464" : 80,
            "107479040" : 88,
            "108527616" : 89,
            "109576192" : 70,
            "110624768" : 70,
            "111673344" : 82,
            "112721920" : 74,
            "113770496" : 47,
            "114819072" : 62,
            "115867648" : 68,
            "116916224" : 75,
            "117964800" : 47,
            "119013376" : 73,
            "120061952" : 48,
            "121110528" : 53,
            "122159104" : 46,
            "123207680" : 55,
            "124256256" : 44,
            "125304832" : 46,
            "126353408" : 46,
            "127401984" : 50,
            "128450560" : 46,
            "129499136" : 50,
            "130547712" : 43,
            "131596288" : 33,
            "132644864" : 44,
            "133693440" : 39,
            "135266304" : 79,
            "137363456" : 68,
            "139460608" : 59,
            "141557760" : 59,
            "143654912" : 56,
            "145752064" : 44,
            "147849216" : 51,
            "149946368" : 36,
            "152043520" : 35,
            "154140672" : 37,
            "156237824" : 38,
            "158334976" : 32,
            "160432128" : 37,
            "162529280" : 29,
            "164626432" : 26,
            "166723584" : 34,
            "168820736" : 26,
            "170917888" : 21,
            "173015040" : 24,
            "175112192" : 13,
            "177209344" : 18,
            "179306496" : 32,
            "181403648" : 20,
            "183500800" : 22,
            "185597952" : 14,
            "187695104" : 13,
            "189792256" : 26,
            "191889408" : 10,
            "193986560" : 13,
            "196083712" : 13,
            "198180864" : 9,
            "200278016" : 9,
            "202375168" : 5,
            "204472320" : 10,
            "206569472" : 14,
            "208666624" : 8,
            "210763776" : 6,
            "212860928" : 3,
            "214958080" : 8,
            "217055232" : 6,
            "219152384" : 3,
            "221249536" : 13,
            "223346688" : 8,
            "225443840" : 7,
            "227540992" : 7,
            "229638144" : 1,
            "231735296" : 5,
            "233832448" : 6,
            "235929600" : 3,
            "238026752" : 5,
            "240123904" : 5,
            "242221056" : 2,
            "244318208" : 2,
            "246415360" : 6,
            "248512512" : 3,
            "250609664" : 8,
            "252706816" : 6,
            "254803968" : 5,
            "256901120" : 3,
            "258998272" : 4,
            "261095424" : 7,
            "263192576" : 4,
            "265289728" : 2,
            "267386880" : 8,
            "270532608" : 9,
            "274726912" : 9,
            "278921216" : 9,
            "283115520" : 5,
            "287309824" : 16,
            "291504128" : 8,
            "295698432" : 12,
            "299892736" : 4,
            "304087040" : 9,
            "308281344" : 5,
            "312475648" : 9,
            "316669952" : 6,
            "320864256" : 5,
            "325058560" : 5,
            "329252864" : 2,
            "333447168" : 6,
            "337641472" : 8,
            "341835776" : 3,
            "346030080" : 2,
            "350224384" : 2,
            "354418688" : 6,
            "358612992" : 5,
            "362807296" : 4,
            "367001600" : 6,
            "371195904" : 2,
            "375390208" : 4,
            "379584512" : 6,
            "383778816" : 4,
            "387973120" : 1,
            "392167424" : 1,
            "396361728" : 2,
            "400556032" : 3,
            "404750336" : 2,
            "408944640" : 1,
            "413138944" : 2,
            "417333248" : 3,
            "421527552" : 1,
            "425721856" : 4,
            "429916160" : 2,
            "438304768" : 1,
            "442499072" : 2,
            "450887680" : 2,
            "455081984" : 1,
            "463470592" : 1,
            "467664896" : 2,
            "471859200" : 1,
            "476053504" : 1,
            "480247808" : 1,
            "484442112" : 2,
            "488636416" : 2,
            "492830720" : 2,
            "501219328" : 1,
            "513802240" : 1,
            "517996544" : 1,
            "530579456" : 1,
            "534773760" : 1,
            "541065216" : 1,
            "549453824" : 1,
            "574619648" : 1,
            "666894336" : 1
          }
        },
        "lat_ns" : {
          "min" : 4327770,
          "max" : 668522712,
          "mean" : 97342761.397546,
          "stddev" : 55320227.071810
        },
        "bw_min" : 2,
        "bw_max" : 12,
        "bw_agg" : 24.593750,
        "bw_mean" : 9.837500,
        "bw_dev" : 1.734058,
        "bw_samples" : 240,
        "iops_min" : 20,
        "iops_max" : 102,
        "iops_mean" : 81.895833,
        "iops_stddev" : 13.482422,
        "iops_samples" : 240
      },
      "trim" : {
        "io_bytes" : 0,
        "io_kbytes" : 0,
        "bw" : 0,
        "iops" : 0.000000,
        "runtime" : 0,
        "total_ios" : 0,
        "short_ios" : 0,
        "drop_ios" : 0,
        "slat_ns" : {
          "min" : 0,
          "max" : 0,
          "mean" : 0.000000,
          "stddev" : 0.000000
        },
        "clat_ns" : {
          "min" : 0,
          "max" : 0,
          "mean" : 0.000000,
          "stddev" : 0.000000,
          "percentile" : {
            "1.000000" : 0,
            "5.000000" : 0,
            "10.000000" : 0,
            "20.000000" : 0,
            "30.000000" : 0,
            "40.000000" : 0,
            "50.000000" : 0,
            "60.000000" : 0,
            "70.000000" : 0,
            "80.000000" : 0,
            "90.000000" : 0,
            "95.000000" : 0,
            "99.000000" : 0,
            "99.500000" : 0,
            "99.900000" : 0,
            "99.950000" : 0,
            "99.990000" : 0,
            "0.00" : 0,
            "0.00" : 0,
            "0.00" : 0
          },
          "bins" : {

          }
        },
        "lat_ns" : {
          "min" : 0,
          "max" : 0,
          "mean" : 0.000000,
          "stddev" : 0.000000
        },
        "bw_min" : 0,
        "bw_max" : 0,
        "bw_agg" : 0.000000,
        "bw_mean" : 0.000000,
        "bw_dev" : 0.000000,
        "bw_samples" : 0,
        "iops_min" : 0,
        "iops_max" : 0,
        "iops_mean" : 0.000000,
        "iops_stddev" : 0.000000,
        "iops_samples" : 0
      },
      "usr_cpu" : 0.132996,
      "sys_cpu" : 0.442213,
      "ctx" : 19415,
      "majf" : 0,
      "minf" : 32,
      "iodepth_level" : {
        "1" : 0.100000,
        "2" : 0.100000,
        "4" : 0.162222,
        "8" : 99.716111,
        "16" : 0.000000,
        "32" : 0.000000,
        ">=64" : 0.000000
      },
      "latency_ns" : {
        "2" : 0.000000,
        "4" : 0.000000,
        "10" : 0.000000,
        "20" : 0.000000,
        "50" : 0.000000,
        "100" : 0.000000,
        "250" : 0.000000,
        "500" : 0.000000,
        "750" : 0.000000,
        "1000" : 0.000000
      },
      "latency_us" : {
        "2" : 0.000000,
        "4" : 0.000000,
        "10" : 0.000000,
        "20" : 0.000000,
        "50" : 0.000000,
        "100" : 0.000000,
        "250" : 0.000000,
        "500" : 0.000000,
        "750" : 0.000000,
        "1000" : 0.000000
      },
      "latency_ms" : {
        "2" : 0.000000,
        "4" : 0.000000,
        "10" : 0.121667,
        "20" : 0.435973,
        "50" : 9.439319,
        "100" : 55.186049,
        "250" : 32.130184,
        "500" : 2.595559,
        "750" : 0.091250,
        "1000" : 0.000000,
        "2000" : 0.000000,
        ">=2000" : 0.000000
      },
      "latency_depth" : 8,
      "latency_target" : 0,
      "latency_percentile" : 100.000000,
      "latency_window" : 0
    }
  ]
}
