{
  "fio version" : "fio-3.1",
  "timestamp" : 1541927243,
  "timestamp_ms" : 1541927243672,
  "time" : "Sun Nov 11 09:07:23 2018",
  "global options" : {
    "fallocate" : "none",
    "runtime" : "30",
    "directory" : "/data/fio_write/ceph-write-7rn9v",
    "bs" : "256",
    "time_based" : "1",
    "ioengine" : "libaio",
    "iodepth" : "8",
    "direct" : "1",
    "buffered" : "0",
    "thread" : "0",
    "group_reporting" : "1",
    "filesize" : "32g",
    "size" : "32g",
    "filename_format" : "$jobnum.dat"
  },
  "jobs" : [
    {
      "jobname" : "${FIO_JOB}",
      "groupid" : 0,
      "error" : 0,
      "eta" : 0,
      "elapsed" : 31,
      "job options" : {
        "rw" : "randwrite"
      },
      "read" : {
        "io_bytes" : 0,
        "io_kbytes" : 0,
        "bw" : 0,
        "iops" : 0.000000,
        "runtime" : 0,
        "total_ios" : 0,
        "short_ios" : 0,
        "drop_ios" : 0,
        "slat_ns" : {
          "min" : 0,
          "max" : 0,
          "mean" : 0.000000,
          "stddev" : 0.000000
        },
        "clat_ns" : {
          "min" : 0,
          "max" : 0,
          "mean" : 0.000000,
          "stddev" : 0.000000,
          "percentile" : {
            "1.000000" : 0,
            "5.000000" : 0,
            "10.000000" : 0,
            "20.000000" : 0,
            "30.000000" : 0,
            "40.000000" : 0,
            "50.000000" : 0,
            "60.000000" : 0,
            "70.000000" : 0,
            "80.000000" : 0,
            "90.000000" : 0,
            "95.000000" : 0,
            "99.000000" : 0,
            "99.500000" : 0,
            "99.900000" : 0,
            "99.950000" : 0,
            "99.990000" : 0,
            "0.00" : 0,
            "0.00" : 0,
            "0.00" : 0
          },
          "bins" : {

          }
        },
        "lat_ns" : {
          "min" : 0,
          "max" : 0,
          "mean" : 0.000000,
          "stddev" : 0.000000
        },
        "bw_min" : 0,
        "bw_max" : 0,
        "bw_agg" : 0.000000,
        "bw_mean" : 0.000000,
        "bw_dev" : 0.000000,
        "bw_samples" : 0,
        "iops_min" : 0,
        "iops_max" : 0,
        "iops_mean" : 0.000000,
        "iops_stddev" : 0.000000,
        "iops_samples" : 0
      },
      "write" : {
        "io_bytes" : 1993984,
        "io_kbytes" : 1947,
        "bw" : 63,
        "iops" : 255.009167,
        "runtime" : 30544,
        "total_ios" : 7789,
        "short_ios" : 0,
        "drop_ios" : 0,
        "slat_ns" : {
          "min" : 20742,
          "max" : 117371647,
          "mean" : 215778.747850,
          "stddev" : 3181765.974467
        },
        "clat_ns" : {
          "min" : 3342932,
          "max" : 937687958,
          "mean" : 123622461.096932,
          "stddev" : 99424893.603036,
          "percentile" : {
            "1.000000" : 22413312,
            "5.000000" : 40632320,
            "10.000000" : 51118080,
            "20.000000" : 64749568,
            "30.000000" : 74973184,
            "40.000000" : 84410368,
            "50.000000" : 95944704,
            "60.000000" : 109576192,
            "70.000000" : 126353408,
            "80.000000" : 154140672,
            "90.000000" : 217055232,
            "95.000000" : 308281344,
            "99.000000" : 591396864,
            "99.500000" : 650117120,
            "99.900000" : 734003200,
            "99.950000" : 742391808,
            "99.990000" : 935329792,
            "0.00" : 0,
            "0.00" : 0,
            "0.00" : 0
          },
          "bins" : {
            "3358720" : 1,
            "4816896" : 1,
            "6914048" : 1,
            "7372800" : 1,
            "7503872" : 1,
            "8224768" : 1,
            "9240576" : 1,
            "9371648" : 1,
            "9895936" : 1,
            "10158080" : 1,
            "11468800" : 2,
            "11730944" : 2,
            "12517376" : 1,
            "13041664" : 1,
            "13303808" : 1,
            "13565952" : 1,
            "13697024" : 2,
            "13828096" : 1,
            "13959168" : 1,
            "14090240" : 2,
            "14221312" : 1,
            "14352384" : 1,
            "14745600" : 1,
            "15007744" : 2,
            "15138816" : 4,
            "15532032" : 1,
            "15794176" : 2,
            "16318464" : 1,
            "16449536" : 1,
            "16908288" : 2,
            "17170432" : 1,
            "17432576" : 2,
            "17694720" : 1,
            "18481152" : 1,
            "18743296" : 3,
            "19005440" : 2,
            "19267584" : 1,
            "19529728" : 3,
            "19791872" : 3,
            "20054016" : 1,
            "20578304" : 3,
            "20840448" : 2,
            "21102592" : 3,
            "21364736" : 2,
            "21889024" : 1,
            "22151168" : 7,
            "22413312" : 3,
            "22675456" : 2,
            "23199744" : 3,
            "23461888" : 5,
            "23986176" : 4,
            "24248320" : 4,
            "24510464" : 5,
            "24772608" : 1,
            "25034752" : 1,
            "25296896" : 4,
            "25559040" : 3,
            "25821184" : 2,
            "26083328" : 4,
            "26345472" : 3,
            "26607616" : 3,
            "26869760" : 3,
            "27131904" : 2,
            "27656192" : 3,
            "27918336" : 2,
            "28180480" : 9,
            "28442624" : 4,
            "28704768" : 2,
            "28966912" : 4,
            "29229056" : 4,
            "29491200" : 9,
            "29753344" : 4,
            "30015488" : 2,
            "30277632" : 1,
            "30539776" : 7,
            "30801920" : 1,
            "31064064" : 4,
            "31326208" : 5,
            "31588352" : 5,
            "31850496" : 7,
            "32112640" : 3,
            "32374784" : 3,
            "32636928" : 4,
            "32899072" : 6,
            "33161216" : 4,
            "33423360" : 4,
            "33816576" : 4,
            "34340864" : 10,
            "34865152" : 11,
            "35389440" : 10,
            "35913728" : 14,
            "36438016" : 10,
            "36962304" : 10,
            "37486592" : 14,
            "38010880" : 11,
            "38535168" : 11,
            "39059456" : 14,
            "39583744" : 18,
            "40108032" : 20,
            "40632320" : 15,
            "41156608" : 17,
            "41680896" : 14,
            "42205184" : 11,
            "42729472" : 18,
            "43253760" : 28,
            "43778048" : 13,
            "44302336" : 12,
            "44826624" : 22,
            "45350912" : 19,
            "45875200" : 17,
            "46399488" : 18,
            "46923776" : 21,
            "47448064" : 24,
            "47972352" : 23,
            "48496640" : 24,
            "49020928" : 21,
            "49545216" : 27,
            "50069504" : 21,
            "50593792" : 23,
            "51118080" : 25,
            "51642368" : 20,
            "52166656" : 32,
            "52690944" : 20,
            "53215232" : 29,
            "53739520" : 26,
            "54263808" : 27,
            "54788096" : 22,
            "55312384" : 29,
            "55836672" : 36,
            "56360960" : 23,
            "56885248" : 28,
            "57409536" : 31,
            "57933824" : 31,
            "58458112" : 26,
            "58982400" : 33,
            "59506688" : 26,
            "60030976" : 33,
            "60555264" : 36,
            "61079552" : 44,
            "61603840" : 30,
            "62128128" : 38,
            "62652416" : 33,
            "63176704" : 28,
            "63700992" : 42,
            "64225280" : 30,
            "64749568" : 29,
            "65273856" : 42,
            "65798144" : 40,
            "66322432" : 43,
            "66846720" : 43,
            "67633152" : 71,
            "68681728" : 91,
            "69730304" : 90,
            "70778880" : 87,
            "71827456" : 89,
            "72876032" : 79,
            "73924608" : 78,
            "74973184" : 73,
            "76021760" : 88,
            "77070336" : 81,
            "78118912" : 83,
            "79167488" : 90,
            "80216064" : 75,
            "81264640" : 72,
            "82313216" : 82,
            "83361792" : 75,
            "84410368" : 69,
            "85458944" : 90,
            "86507520" : 85,
            "87556096" : 68,
            "88604672" : 89,
            "89653248" : 87,
            "90701824" : 65,
            "91750400" : 77,
            "92798976" : 69,
            "93847552" : 72,
            "94896128" : 63,
            "95944704" : 64,
            "96993280" : 65,
            "98041856" : 62,
            "99090432" : 69,
            "100139008" : 60,
            "101187584" : 67,
            "102236160" : 58,
            "103284736" : 60,
            "104333312" : 73,
            "105381888" : 53,
            "106430464" : 64,
            "107479040" : 47,
            "108527616" : 47,
            "109576192" : 51,
            "110624768" : 55,
            "111673344" : 56,
            "112721920" : 46,
            "113770496" : 46,
            "114819072" : 61,
            "115867648" : 45,
            "116916224" : 48,
            "117964800" : 37,
            "119013376" : 46,
            "120061952" : 46,
            "121110528" : 51,
            "122159104" : 36,
            "123207680" : 52,
            "124256256" : 39,
            "125304832" : 41,
            "126353408" : 39,
            "127401984" : 39,
            "128450560" : 37,
            "129499136" : 37,
            "130547712" : 32,
            "131596288" : 34,
            "132644864" : 33,
            "133693440" : 30,
            "135266304" : 50,
            "137363456" : 76,
            "139460608" : 54,
            "141557760" : 61,
            "143654912" : 44,
            "145752064" : 55,
            "147849216" : 49,
            "149946368" : 60,
            "152043520" : 53,
            "154140672" : 44,
            "156237824" : 50,
            "158334976" : 45,
            "160432128" : 39,
            "162529280" : 38,
            "164626432" : 38,
            "166723584" : 36,
            "168820736" : 26,
            "170917888" : 23,
            "173015040" : 43,
            "175112192" : 31,
            "177209344" : 23,
            "179306496" : 28,
            "181403648" : 30,
            "183500800" : 26,
            "185597952" : 14,
            "187695104" : 23,
            "189792256" : 29,
            "191889408" : 20,
            "193986560" : 13,
            "196083712" : 16,
            "198180864" : 14,
            "200278016" : 22,
            "202375168" : 24,
            "204472320" : 17,
            "206569472" : 14,
            "208666624" : 19,
            "210763776" : 17,
            "212860928" : 20,
            "214958080" : 17,
            "217055232" : 19,
            "219152384" : 15,
            "221249536" : 9,
            "223346688" : 7,
            "225443840" : 9,
            "227540992" : 8,
            "229638144" : 14,
            "231735296" : 18,
            "233832448" : 13,
            "235929600" : 19,
            "238026752" : 15,
            "240123904" : 8,
            "242221056" : 16,
            "244318208" : 9,
            "246415360" : 11,
            "248512512" : 5,
            "250609664" : 8,
            "252706816" : 13,
            "254803968" : 13,
            "256901120" : 9,
            "258998272" : 12,
            "261095424" : 10,
            "263192576" : 6,
            "265289728" : 8,
            "267386880" : 11,
            "270532608" : 15,
            "274726912" : 10,
            "278921216" : 10,
            "283115520" : 17,
            "287309824" : 11,
            "291504128" : 9,
            "295698432" : 8,
            "299892736" : 10,
            "304087040" : 8,
            "308281344" : 10,
            "312475648" : 10,
            "316669952" : 11,
            "320864256" : 5,
            "325058560" : 7,
            "329252864" : 5,
            "333447168" : 11,
            "337641472" : 8,
            "341835776" : 11,
            "346030080" : 6,
            "350224384" : 6,
            "354418688" : 2,
            "358612992" : 7,
            "362807296" : 5,
            "367001600" : 5,
            "371195904" : 3,
            "375390208" : 7,
            "379584512" : 8,
            "383778816" : 6,
            "387973120" : 3,
            "392167424" : 4,
            "396361728" : 4,
            "400556032" : 5,
            "404750336" : 4,
            "408944640" : 7,
            "413138944" : 3,
            "417333248" : 7,
            "421527552" : 4,
            "425721856" : 4,
            "429916160" : 2,
            "434110464" : 4,
            "438304768" : 5,
            "442499072" : 6,
            "446693376" : 9,
            "450887680" : 4,
            "455081984" : 4,
            "463470592" : 2,
            "467664896" : 3,
            "471859200" : 5,
            "476053504" : 4,
            "480247808" : 5,
            "484442112" : 1,
            "488636416" : 5,
            "492830720" : 4,
            "497025024" : 3,
            "501219328" : 3,
            "505413632" : 3,
            "509607936" : 4,
            "513802240" : 7,
            "517996544" : 4,
            "522190848" : 2,
            "526385152" : 3,
            "530579456" : 3,
            "534773760" : 1,
            "541065216" : 7,
            "549453824" : 7,
            "557842432" : 7,
            "566231040" : 7,
            "574619648" : 9,
            "583008256" : 3,
            "591396864" : 8,
            "599785472" : 10,
            "608174080" : 6,
            "616562688" : 2,
            "624951296" : 6,
            "633339904" : 4,
            "641728512" : 1,
            "650117120" : 9,
            "658505728" : 6,
            "666894336" : 6,
            "675282944" : 1,
            "683671552" : 2,
            "692060160" : 1,
            "700448768" : 2,
            "708837376" : 5,
            "717225984" : 2,
            "725614592" : 3,
            "734003200" : 2,
            "742391808" : 3,
            "750780416" : 1,
            "784334848" : 1,
            "935329792" : 1
          }
        },
        "lat_ns" : {
          "min" : 3447079,
          "max" : 937832181,
          "mean" : 123839101.334831,
          "stddev" : 99461105.262644
        },
        "bw_min" : 1,
        "bw_max" : 26,
        "bw_agg" : 25.179477,
        "bw_mean" : 15.863071,
        "bw_dev" : 5.606723,
        "bw_samples" : 241,
        "iops_min" : 4,
        "iops_max" : 104,
        "iops_mean" : 64.369295,
        "iops_stddev" : 22.507789,
        "iops_samples" : 241
      },
      "trim" : {
        "io_bytes" : 0,
        "io_kbytes" : 0,
        "bw" : 0,
        "iops" : 0.000000,
        "runtime" : 0,
        "total_ios" : 0,
        "short_ios" : 0,
        "drop_ios" : 0,
        "slat_ns" : {
          "min" : 0,
          "max" : 0,
          "mean" : 0.000000,
          "stddev" : 0.000000
        },
        "clat_ns" : {
          "min" : 0,
          "max" : 0,
          "mean" : 0.000000,
          "stddev" : 0.000000,
          "percentile" : {
            "1.000000" : 0,
            "5.000000" : 0,
            "10.000000" : 0,
            "20.000000" : 0,
            "30.000000" : 0,
            "40.000000" : 0,
            "50.000000" : 0,
            "60.000000" : 0,
            "70.000000" : 0,
            "80.000000" : 0,
            "90.000000" : 0,
            "95.000000" : 0,
            "99.000000" : 0,
            "99.500000" : 0,
            "99.900000" : 0,
            "99.950000" : 0,
            "99.990000" : 0,
            "0.00" : 0,
            "0.00" : 0,
            "0.00" : 0
          },
          "bins" : {

          }
        },
        "lat_ns" : {
          "min" : 0,
          "max" : 0,
          "mean" : 0.000000,
          "stddev" : 0.000000
        },
        "bw_min" : 0,
        "bw_max" : 0,
        "bw_agg" : 0.000000,
        "bw_mean" : 0.000000,
        "bw_dev" : 0.000000,
        "bw_samples" : 0,
        "iops_min" : 0,
        "iops_max" : 0,
        "iops_mean" : 0.000000,
        "iops_stddev" : 0.000000,
        "iops_samples" : 0
      },
      "usr_cpu" : 0.069301,
      "sys_cpu" : 0.371256,
      "ctx" : 15330,
      "majf" : 0,
      "minf" : 35,
      "iodepth_level" : {
        "1" : 0.100000,
        "2" : 0.102709,
        "4" : 0.205418,
        "8" : 99.640519,
        "16" : 0.000000,
        "32" : 0.000000,
        ">=64" : 0.000000
      },
      "latency_ns" : {
        "2" : 0.000000,
        "4" : 0.000000,
        "10" : 0.000000,
        "20" : 0.000000,
        "50" : 0.000000,
        "100" : 0.000000,
        "250" : 0.000000,
        "500" : 0.000000,
        "750" : 0.000000,
        "1000" : 0.000000
      },
      "latency_us" : {
        "2" : 0.000000,
        "4" : 0.000000,
        "10" : 0.000000,
        "20" : 0.000000,
        "50" : 0.000000,
        "100" : 0.000000,
        "250" : 0.000000,
        "500" : 0.000000,
        "750" : 0.000000,
        "1000" : 0.000000
      },
      "latency_ms" : {
        "2" : 0.000000,
        "4" : 0.012839,
        "10" : 0.102709,
        "20" : 0.616254,
        "50" : 8.704583,
        "100" : 43.997946,
        "250" : 39.106432,
        "500" : 5.520606,
        "750" : 1.900116,
        "1000" : 0.038516,
        "2000" : 0.000000,
        ">=2000" : 0.000000
      },
      "latency_depth" : 8,
      "latency_target" : 0,
      "latency_percentile" : 100.000000,
      "latency_window" : 0
    }
  ]
}
